{
    // See https://go.microsoft.com/fwlink/?LinkId=733558
    // for the documentation about the tasks.json format
    "version": "2.0.0",
    "tasks": [
        {
            "label": "verify",
            "type": "shell",
            "command": "mvn -B verify",
            "group": "build"
        },
        {
            "label": "test Account",
            "type": "shell",
            "command": "cd ovinger && mvn -Dtest=AccountTest test",
            "group": "test",
            "problemMatcher": []
        },
        {
            "label": "Run Account",
            "type": "shell",
            "command": "cd ovinger && mvn exec:java -Dexec.mainClass='stateandbehavior.Account'",
            "problemMatcher": []
        },
        {
            "label": "test Location",
            "type": "shell",
            "command": "cd ovinger && mvn -Dtest=LocationTest test",
            "group": "test",
            "problemMatcher": []
        },
         {
            "label": "Run Location",
            "type": "shell",
            "command": "cd ovinger && mvn exec:java -Dexec.mainClass='stateandbehavior.Location'",
            "problemMatcher": []
        },
        {
            "label": "test Digit",
            "type": "shell",
            "command": "cd ovinger && mvn -Dtest=DigitTest test",
            "group": "test",
            "problemMatcher": []
        },
        {
            "label": "Run Digit",
            "type": "shell",
            "command": "cd ovinger && mvn exec:java -Dexec.mainClass='stateandbehavior.Digit'",
            "problemMatcher": []
        },
         {
            "label": "test UpOrDownCounter",
            "type": "shell",
            "command": "cd ovinger && mvn -Dtest=UpOrDownCounterTest test",
            "group": "test",
            "problemMatcher": []
        },
        {
            "label": "Run UpOrDownCounter",
            "type": "shell",
            "command": "cd ovinger && mvn exec:java -Dexec.mainClass='stateandbehavior.UpOrDownCounterTest'",
            "problemMatcher": []
        },
        {
            "label": "test Rectangle",
            "type": "shell",
            "command": "cd ovinger && mvn -Dtest=RectangleTest test",
            "group": "test",
            "problemMatcher": []
        },
        {
            "label": "Run Rectangle",
            "type": "shell",
            "command": "cd ovinger && mvn exec:java -Dexec.mainClass='stateandbehavior.Rectangle'",
            "problemMatcher": []
        },
        {
            "label": "test LineEditor",
            "type": "shell",
            "command": "cd ovinger && mvn -Dtest=LineEditorTest test",
            "group": "test",
            "problemMatcher": []
        },
        {
            "label": "Run LineEditor",
            "type": "shell",
            "command": "cd ovinger && mvn exec:java -Dexec.mainClass='stateandbehavior.LineEditor'",
            "problemMatcher": []
        },
         {
            "label": "test StopWatch",
            "type": "shell",
            "command": "cd ovinger && mvn -Dtest=StopWatchTest test",
            "group": "test",
            "problemMatcher": []
        },
        {
            "label": "Run StopWatch",
            "type": "shell",
            "command": "cd ovinger && mvn exec:java -Dexec.mainClass='stateandbehavior.StopWatch'",
            "problemMatcher": []
        },
        {
            "label": "run AccountApp",
            "type": "shell",
            "command": "cd tdt4100-assignment-with-javafx && mvn -PAccountApp exec:java",
            "group": "test",
            "problemMatcher": []
        },
    ]
}